<svg xmlns="http://www.w3.org/2000/svg" width="447" height="55" viewBox="0 0 447 55">
  <g fill="none" fill-rule="evenodd">
    <path fill="#FFF" d="M224.918 36.186L224.918 38.846 225.926 38.846C226.766 38.846 227.116 38.342 227.116 37.474 227.116 36.62 226.822 36.186 225.954 36.186L224.918 36.186zM224.918 40.288L224.918 43.41 226.15 43.41C226.864 43.41 227.214 42.976 227.214 41.842 227.214 40.848 226.864 40.288 226.15 40.288L224.918 40.288zM223 44.852L223 34.744 226.542 34.744C228.32 34.744 229.034 35.92 229.034 37.208 229.034 38.174 228.516 39.252 227.676 39.42 228.67 39.826 229.174 40.54 229.174 41.856 229.174 43.606 228.418 44.852 226.864 44.852L223 44.852zM235.586 37.81L233.668 37.81 233.668 37.39C233.668 35.724 234.718 34.562 236.748 34.562 238.848 34.562 239.842 35.738 239.842 37.39L239.842 41.702C239.842 44.054 238.778 45.09 236.776 45.09 234.676 45.09 233.668 44.138 233.668 41.786L233.668 41.296 235.586 41.296 235.586 41.996C235.586 42.99 235.824 43.55 236.748 43.55 237.49 43.55 237.882 42.934 237.882 41.94L237.882 40.176 236.272 40.176 236.272 38.636 237.882 38.636 237.882 37.81C237.882 36.76 237.672 36.102 236.748 36.102 235.852 36.102 235.586 36.76 235.586 37.81zM241.172 34.744L247.542 34.744 247.542 44.852 245.624 44.852 245.624 36.284 243.09 36.284 243.09 44.852 241.172 44.852 241.172 34.744zM248.872 38.02C248.872 35.472 250.244 34.562 252.162 34.562 254.108 34.562 255.41 35.444 255.41 38.02L255.41 41.688C255.41 44.264 254.108 45.09 252.162 45.09 250.244 45.09 248.872 44.236 248.872 41.688L248.872 38.02zM252.162 36.102C251.252 36.102 250.832 36.718 250.832 37.796L250.832 41.926C250.832 42.976 251.252 43.55 252.162 43.55 252.988 43.55 253.45 42.99 253.45 41.926L253.45 37.824C253.45 36.746 252.988 36.102 252.162 36.102zM256.348 34.744L258.574 34.744 259.876 38.034 261.248 34.744 263.404 34.744 260.912 39.658 263.488 44.852 261.346 44.852 259.876 41.128 258.35 44.852 256.25 44.852 258.686 39.658 256.348 34.744zM263.838 34.744L265.994 34.744 267.548 40.106 269.102 34.744 271.202 34.744 268.458 42.92C267.926 44.516 267.324 45.09 266.386 45.09 265.938 45.09 265.56 45.02 265.224 44.908L265.224 43.438C265.336 43.466 265.504 43.55 265.756 43.55 266.134 43.55 266.414 43.312 266.61 42.738L263.838 34.744zM277.292 34.744L277.292 43.312 279.826 43.312 279.826 34.744 281.744 34.744 281.744 43.312 282.36 43.312 282.36 46.896 280.568 46.896 280.568 44.852 275.374 44.852 275.374 34.744 277.292 34.744zM283.452 34.744L285.244 34.744 285.244 38.524C285.244 39.728 285.188 41.254 285.006 42.094L285.02 42.094 287.82 34.744 289.892 34.744 289.892 44.852 288.1 44.852 288.1 41.03C288.1 39.49 288.142 38.426 288.338 37.516L288.324 37.516 285.524 44.852 283.452 44.852 283.452 34.744zM294.89 34.744L296.808 34.744 296.808 35.892 297.368 35.892C299.006 35.892 300.672 37.11 300.672 39.77 300.672 42.5 299.02 43.606 297.368 43.606L296.808 43.606 296.808 44.852 294.89 44.852 294.89 43.606 294.33 43.606C292.678 43.606 291.026 42.5 291.026 39.77 291.026 37.11 292.692 35.892 294.33 35.892L294.89 35.892 294.89 34.744zM294.89 42.108L294.89 37.39 294.442 37.39C293.532 37.39 292.986 38.356 292.986 39.77 292.986 41.268 293.504 42.108 294.442 42.108L294.89 42.108zM296.808 37.39L296.808 42.108 297.256 42.108C298.194 42.108 298.712 41.268 298.712 39.77 298.712 38.356 298.166 37.39 297.256 37.39L296.808 37.39zM303.78 40.736L303.78 44.852 301.862 44.852 301.862 34.744 305.488 34.744C307.126 34.744 308.148 36.074 308.148 37.698 308.148 39.364 307.098 40.736 305.46 40.736L303.78 40.736zM303.78 36.242L303.78 39.238 304.746 39.238C305.712 39.238 306.188 38.692 306.188 37.726 306.188 36.774 305.712 36.242 304.746 36.242L303.78 36.242zM309.408 38.02C309.408 35.472 310.78 34.562 312.698 34.562 314.644 34.562 315.946 35.444 315.946 38.02L315.946 41.688C315.946 44.264 314.644 45.09 312.698 45.09 310.78 45.09 309.408 44.236 309.408 41.688L309.408 38.02zM312.698 36.102C311.788 36.102 311.368 36.718 311.368 37.796L311.368 41.926C311.368 42.976 311.788 43.55 312.698 43.55 313.524 43.55 313.986 42.99 313.986 41.926L313.986 37.824C313.986 36.746 313.524 36.102 312.698 36.102zM319.194 36.186L319.194 38.846 320.202 38.846C321.042 38.846 321.392 38.342 321.392 37.474 321.392 36.62 321.098 36.186 320.23 36.186L319.194 36.186zM319.194 40.288L319.194 43.41 320.426 43.41C321.14 43.41 321.49 42.976 321.49 41.842 321.49 40.848 321.14 40.288 320.426 40.288L319.194 40.288zM317.276 44.852L317.276 34.744 320.818 34.744C322.596 34.744 323.31 35.92 323.31 37.208 323.31 38.174 322.792 39.252 321.952 39.42 322.946 39.826 323.45 40.54 323.45 41.856 323.45 43.606 322.694 44.852 321.14 44.852L317.276 44.852zM324.584 38.02C324.584 35.472 325.956 34.562 327.874 34.562 329.82 34.562 331.122 35.444 331.122 38.02L331.122 41.688C331.122 44.264 329.82 45.09 327.874 45.09 325.956 45.09 324.584 44.236 324.584 41.688L324.584 38.02zM327.874 36.102C326.964 36.102 326.544 36.718 326.544 37.796L326.544 41.926C326.544 42.976 326.964 43.55 327.874 43.55 328.7 43.55 329.162 42.99 329.162 41.926L329.162 37.824C329.162 36.746 328.7 36.102 327.874 36.102zM332.452 34.744L334.244 34.744 334.244 38.538C334.244 39.742 334.188 41.254 334.006 42.094L334.02 42.094 336.82 34.744 338.892 34.744 338.892 44.852 337.1 44.852 337.1 41.016C337.1 39.476 337.142 38.426 337.338 37.516L337.324 37.516 334.524 44.852 332.452 44.852 332.452 34.744zM333.6 32L334.594 32C334.594 32.756 334.986 33.148 335.602 33.148 336.218 33.148 336.61 32.756 336.61 32L337.604 32C337.604 33.078 337.198 34.1 335.574 34.1 334.006 34.1 333.6 33.078 333.6 32zM347.502 36.284L347.502 44.852 345.584 44.852 345.584 36.284 343.204 36.284 343.204 34.744 349.882 34.744 349.882 36.284 347.502 36.284zM352.752 40.736L352.752 44.852 350.834 44.852 350.834 34.744 354.46 34.744C356.098 34.744 357.12 36.074 357.12 37.698 357.12 39.364 356.07 40.736 354.432 40.736L352.752 40.736zM352.752 36.242L352.752 39.238 353.718 39.238C354.684 39.238 355.16 38.692 355.16 37.726 355.16 36.774 354.684 36.242 353.718 36.242L352.752 36.242zM357.19 44.852L359.752 34.744 362.328 34.744 364.568 44.852 362.496 44.852 362.02 42.22 359.85 42.22 359.248 44.852 357.19 44.852zM360.088 40.722L361.782 40.722 361.012 36.018 360.088 40.722zM367.284 34.744L367.284 38.636 369.818 38.636 369.818 34.744 371.736 34.744 371.736 44.852 369.818 44.852 369.818 40.176 367.284 40.176 367.284 44.852 365.366 44.852 365.366 34.744 367.284 34.744zM379.24 38.034L377.322 38.034 377.322 37.81C377.322 36.536 377 36.102 376.188 36.102 375.376 36.102 375.026 36.536 375.026 37.81L375.026 41.8C375.026 43.116 375.362 43.55 376.174 43.55 376.944 43.55 377.322 43.102 377.322 41.8L377.322 41.254 379.24 41.254 379.24 41.688C379.24 43.522 378.582 45.09 376.188 45.09 373.668 45.09 373.066 43.508 373.066 41.716L373.066 38.034C373.066 35.668 374.13 34.562 376.216 34.562 378.176 34.562 379.24 35.668 379.24 37.53L379.24 38.034zM384.168 34.744L386.086 34.744 386.086 35.892 386.646 35.892C388.284 35.892 389.95 37.11 389.95 39.77 389.95 42.5 388.298 43.606 386.646 43.606L386.086 43.606 386.086 44.852 384.168 44.852 384.168 43.606 383.608 43.606C381.956 43.606 380.304 42.5 380.304 39.77 380.304 37.11 381.97 35.892 383.608 35.892L384.168 35.892 384.168 34.744zM384.168 42.108L384.168 37.39 383.72 37.39C382.81 37.39 382.264 38.356 382.264 39.77 382.264 41.268 382.782 42.108 383.72 42.108L384.168 42.108zM386.086 37.39L386.086 42.108 386.534 42.108C387.472 42.108 387.99 41.268 387.99 39.77 387.99 38.356 387.444 37.39 386.534 37.39L386.086 37.39zM391.07 38.02C391.07 35.472 392.442 34.562 394.36 34.562 396.306 34.562 397.608 35.444 397.608 38.02L397.608 41.688C397.608 44.264 396.306 45.09 394.36 45.09 392.442 45.09 391.07 44.236 391.07 41.688L391.07 38.02zM394.36 36.102C393.45 36.102 393.03 36.718 393.03 37.796L393.03 41.926C393.03 42.976 393.45 43.55 394.36 43.55 395.186 43.55 395.648 42.99 395.648 41.926L395.648 37.824C395.648 36.746 395.186 36.102 394.36 36.102zM400.856 40.736L400.856 44.852 398.938 44.852 398.938 34.744 402.564 34.744C404.202 34.744 405.224 36.074 405.224 37.698 405.224 39.364 404.174 40.736 402.536 40.736L400.856 40.736zM400.856 36.242L400.856 39.238 401.822 39.238C402.788 39.238 403.264 38.692 403.264 37.726 403.264 36.774 402.788 36.242 401.822 36.242L400.856 36.242zM406.554 34.744L409.62 34.744 410.964 41.31 412.308 34.744 415.374 34.744 415.374 44.852 413.582 44.852 413.582 35.696 413.568 35.696 411.65 44.852 410.278 44.852 408.36 35.71 408.346 35.71 408.346 44.852 406.554 44.852 406.554 34.744zM416.144 44.852L418.706 34.744 421.282 34.744 423.522 44.852 421.45 44.852 420.974 42.22 418.804 42.22 418.202 44.852 416.144 44.852zM419.042 40.722L420.736 40.722 419.966 36.018 419.042 40.722zM426.238 34.744L426.238 43.312 428.772 43.312 428.772 34.744 430.69 34.744 430.69 43.312 431.306 43.312 431.306 46.896 429.514 46.896 429.514 44.852 424.32 44.852 424.32 34.744 426.238 34.744zM432.398 34.744L434.19 34.744 434.19 38.524C434.19 39.728 434.134 41.254 433.952 42.094L433.966 42.094 436.766 34.744 438.838 34.744 438.838 44.852 437.046 44.852 437.046 41.03C437.046 39.49 437.088 38.426 437.284 37.516L437.27 37.516 434.47 44.852 432.398 44.852 432.398 34.744zM440.238 34.744L442.03 34.744 442.03 38.524C442.03 39.728 441.974 41.254 441.792 42.094L441.806 42.094 444.606 34.744 446.678 34.744 446.678 44.852 444.886 44.852 444.886 41.03C444.886 39.49 444.928 38.426 445.124 37.516L445.11 37.516 442.31 44.852 440.238 44.852 440.238 34.744zM.5 1.34L4.61 1.34 4.61 7.25C4.61 9.32 5.63 10.49 7.7 10.49 8.3 10.49 9.32 10.4 9.77 10.28L9.77 1.34 13.88 1.34 13.88 23 9.77 23 9.77 13.49C8.6 13.73 7.64 13.79 6.29 13.79 2.78 13.79.5 11.36.5 7.79L.5 1.34zM17.12 1.34L28.7 1.34 28.7 4.64 21.23 4.64 21.23 9.68 28.04 9.68 28.04 12.98 21.23 12.98 21.23 19.7 28.7 19.7 28.7 23 17.12 23 17.12 1.34zM33.29 1.34L45.83 1.34 45.83 23 41.72 23 41.72 4.64 37.34 4.64 37.34 12.95C37.34 20.18 36.14 23.39 32.69 23.39 31.73 23.39 30.98 23.33 30.2 23.12L30.2 20.09C30.47 20.18 31.04 20.24 31.52 20.24 32.78 20.24 33.29 19.58 33.29 11.72L33.29 1.34zM48.86 8.36C48.86 2.9 51.8.95 55.91.95 60.08.95 62.87 2.84 62.87 8.36L62.87 16.22C62.87 21.74 60.08 23.51 55.91 23.51 51.8 23.51 48.86 21.68 48.86 16.22L48.86 8.36zM55.91 4.25C53.96 4.25 53.06 5.57 53.06 7.88L53.06 16.73C53.06 18.98 53.96 20.21 55.91 20.21 57.68 20.21 58.67 19.01 58.67 16.73L58.67 7.94C58.67 5.63 57.68 4.25 55.91 4.25zM69.83 4.43L69.83 10.13 71.99 10.13C73.79 10.13 74.54 9.05 74.54 7.19 74.54 5.36 73.91 4.43 72.05 4.43L69.83 4.43zM69.83 13.22L69.83 19.91 72.47 19.91C74 19.91 74.75 18.98 74.75 16.55 74.75 14.42 74 13.22 72.47 13.22L69.83 13.22zM65.72 23L65.72 1.34 73.31 1.34C77.12 1.34 78.65 3.86 78.65 6.62 78.65 8.69 77.54 11 75.74 11.36 77.87 12.23 78.95 13.76 78.95 16.58 78.95 20.33 77.33 23 74 23L65.72 23zM81.53 1.34L93.11 1.34 93.11 4.64 85.64 4.64 85.64 9.68 92.45 9.68 92.45 12.98 85.64 12.98 85.64 19.7 93.11 19.7 93.11 23 81.53 23 81.53 1.34zM99.8 1.34L99.8 10.73 104.78 1.34 109.43 1.34 103.94 10.73 109.61 23 105.02 23 101.42 14.36 99.8 16.49 99.8 23 95.69 23 95.69 1.34 99.8 1.34zM.5 28.34L4.34 28.34 4.34 36.44C4.34 39.02 4.22 42.29 3.83 44.09L3.86 44.09 9.86 28.34 14.3 28.34 14.3 50 10.46 50 10.46 41.81C10.46 38.51 10.55 36.23 10.97 34.28L10.94 34.28 4.94 50 .5 50 .5 28.34zM37.58 35.39L33.47 35.39 33.47 34.91C33.47 32.18 32.78 31.25 31.04 31.25 29.3 31.25 28.55 32.18 28.55 34.91L28.55 43.46C28.55 46.28 29.27 47.21 31.01 47.21 32.66 47.21 33.47 46.25 33.47 43.46L33.47 42.29 37.58 42.29 37.58 43.22C37.58 47.15 36.17 50.51 31.04 50.51 25.64 50.51 24.35 47.12 24.35 43.28L24.35 35.39C24.35 30.32 26.63 27.95 31.1 27.95 35.3 27.95 37.58 30.32 37.58 34.31L37.58 35.39zM40.28 35.36C40.28 29.9 43.22 27.95 47.33 27.95 51.5 27.95 54.29 29.84 54.29 35.36L54.29 43.22C54.29 48.74 51.5 50.51 47.33 50.51 43.22 50.51 40.28 48.68 40.28 43.22L40.28 35.36zM47.33 31.25C45.38 31.25 44.48 32.57 44.48 34.88L44.48 43.73C44.48 45.98 45.38 47.21 47.33 47.21 49.1 47.21 50.09 46.01 50.09 43.73L50.09 34.94C50.09 32.63 49.1 31.25 47.33 31.25zM56.99 35.36C56.99 29.9 59.93 27.95 64.04 27.95 68.21 27.95 71 29.84 71 35.36L71 43.22C71 48.74 68.21 50.51 64.04 50.51 59.93 50.51 56.99 48.68 56.99 43.22L56.99 35.36zM64.04 31.25C62.09 31.25 61.19 32.57 61.19 34.88L61.19 43.73C61.19 45.98 62.09 47.21 64.04 47.21 65.81 47.21 66.8 46.01 66.8 43.73L66.8 34.94C66.8 32.63 65.81 31.25 64.04 31.25zM77.96 39.98L77.96 46.91 80.33 46.91C81.86 46.91 82.73 45.98 82.73 43.55 82.73 41.42 81.86 39.98 80.33 39.98L77.96 39.98zM73.85 28.34L85.34 28.34 85.34 31.43 77.96 31.43 77.96 36.68 81.41 36.68C84.77 36.68 86.93 40.01 86.93 43.07 86.93 47.24 85.04 50 81.77 50L73.85 50 73.85 28.34zM93.89 28.34L93.89 46.7 98.33 46.7 98.33 28.34 102.44 28.34 102.44 46.7 106.88 46.7 106.88 28.34 110.99 28.34 110.99 46.7 112.31 46.7 112.31 54.35 108.47 54.35 108.47 50 89.78 50 89.78 28.34 93.89 28.34zM114.44 28.34L126.02 28.34 126.02 31.64 118.55 31.64 118.55 36.68 125.36 36.68 125.36 39.98 118.55 39.98 118.55 46.7 126.02 46.7 126.02 50 114.44 50 114.44 28.34zM141.68 35.39L137.57 35.39 137.57 34.91C137.57 32.18 136.88 31.25 135.14 31.25 133.4 31.25 132.65 32.18 132.65 34.91L132.65 43.46C132.65 46.28 133.37 47.21 135.11 47.21 136.76 47.21 137.57 46.25 137.57 43.46L137.57 42.29 141.68 42.29 141.68 43.22C141.68 47.15 140.27 50.51 135.14 50.51 129.74 50.51 128.45 47.12 128.45 43.28L128.45 35.39C128.45 30.32 130.73 27.95 135.2 27.95 139.4 27.95 141.68 30.32 141.68 34.31L141.68 35.39zM152.78 31.64L152.78 50 148.67 50 148.67 31.64 143.57 31.64 143.57 28.34 157.88 28.34 157.88 31.64 152.78 31.64zM164.03 31.43L164.03 37.13 166.19 37.13C167.99 37.13 168.74 36.05 168.74 34.19 168.74 32.36 168.11 31.43 166.25 31.43L164.03 31.43zM164.03 40.22L164.03 46.91 166.67 46.91C168.2 46.91 168.95 45.98 168.95 43.55 168.95 41.42 168.2 40.22 166.67 40.22L164.03 40.22zM159.92 50L159.92 28.34 167.51 28.34C171.32 28.34 172.85 30.86 172.85 33.62 172.85 35.69 171.74 38 169.94 38.36 172.07 39.23 173.15 40.76 173.15 43.58 173.15 47.33 171.53 50 168.2 50L159.92 50zM174.38 50L179.87 28.34 185.39 28.34 190.19 50 185.75 50 184.73 44.36 180.08 44.36 178.79 50 174.38 50zM180.59 41.15L184.22 41.15 182.57 31.07 180.59 41.15z"/>
    <polygon fill="#0D9FDA" points="121.898 14.621 126.106 23.66 131.472 23.66 124.843 10.823 131.261 1 125.825 1 120.004 10.823"/>
    <polygon fill="#FFF" points="111.894 14.621 116.102 23.66 121.468 23.66 114.84 10.823 121.258 1 115.822 1 110 10.823"/>
    <polygon fill="#0D9FDA" points="160.072 1 442 1 423.928 24 142 24"/>
    <path fill="#FFF" d="M178.864,6.182 L180.782,6.182 L180.782,7.33 L181.342,7.33 C182.98,7.33 184.646,8.548 184.646,11.208 C184.646,13.938 182.994,15.044 181.342,15.044 L180.782,15.044 L180.782,16.29 L178.864,16.29 L178.864,15.044 L178.304,15.044 C176.652,15.044 175,13.938 175,11.208 C175,8.548 176.666,7.33 178.304,7.33 L178.864,7.33 L178.864,6.182 Z M178.864,13.546 L178.864,8.828 L178.416,8.828 C177.506,8.828 176.96,9.794 176.96,11.208 C176.96,12.706 177.478,13.546 178.416,13.546 L178.864,13.546 Z M180.782,8.828 L180.782,13.546 L181.23,13.546 C182.168,13.546 182.686,12.706 182.686,11.208 C182.686,9.794 182.14,8.828 181.23,8.828 L180.782,8.828 Z M185.766,9.458 C185.766,6.91 187.138,6 189.056,6 C191.002,6 192.304,6.882 192.304,9.458 L192.304,13.126 C192.304,15.702 191.002,16.528 189.056,16.528 C187.138,16.528 185.766,15.674 185.766,13.126 L185.766,9.458 Z M189.056,7.54 C188.146,7.54 187.726,8.156 187.726,9.234 L187.726,13.364 C187.726,14.414 188.146,14.988 189.056,14.988 C189.882,14.988 190.344,14.428 190.344,13.364 L190.344,9.262 C190.344,8.184 189.882,7.54 189.056,7.54 Z M195.552,12.174 L195.552,16.29 L193.634,16.29 L193.634,6.182 L197.26,6.182 C198.898,6.182 199.92,7.512 199.92,9.136 C199.92,10.802 198.87,12.174 197.232,12.174 L195.552,12.174 Z M195.552,7.68 L195.552,10.676 L196.518,10.676 C197.484,10.676 197.96,10.13 197.96,9.164 C197.96,8.212 197.484,7.68 196.518,7.68 L195.552,7.68 Z M200.662,6.182 L202.818,6.182 L204.372,11.544 L205.926,6.182 L208.026,6.182 L205.282,14.358 C204.75,15.954 204.148,16.528 203.21,16.528 C202.762,16.528 202.384,16.458 202.048,16.346 L202.048,14.876 C202.16,14.904 202.328,14.988 202.58,14.988 C202.958,14.988 203.238,14.75 203.434,14.176 L200.662,6.182 Z M208.838,6.182 L211.904,6.182 L213.248,12.748 L214.592,6.182 L217.658,6.182 L217.658,16.29 L215.866,16.29 L215.866,7.134 L215.852,7.134 L213.934,16.29 L212.562,16.29 L210.644,7.148 L210.63,7.148 L210.63,16.29 L208.838,16.29 L208.838,6.182 Z M222.348,9.458 C222.348,6.91 223.72,6 225.638,6 C227.584,6 228.886,6.882 228.886,9.458 L228.886,13.126 C228.886,15.702 227.584,16.528 225.638,16.528 C223.72,16.528 222.348,15.674 222.348,13.126 L222.348,9.458 Z M225.638,7.54 C224.728,7.54 224.308,8.156 224.308,9.234 L224.308,13.364 C224.308,14.414 224.728,14.988 225.638,14.988 C226.464,14.988 226.926,14.428 226.926,13.364 L226.926,9.262 C226.926,8.184 226.464,7.54 225.638,7.54 Z M232.134,11.614 L232.134,14.848 L233.24,14.848 C233.954,14.848 234.36,14.414 234.36,13.28 C234.36,12.286 233.954,11.614 233.24,11.614 L232.134,11.614 Z M230.216,6.182 L235.578,6.182 L235.578,7.624 L232.134,7.624 L232.134,10.074 L233.744,10.074 C235.312,10.074 236.32,11.628 236.32,13.056 C236.32,15.002 235.438,16.29 233.912,16.29 L230.216,16.29 L230.216,6.182 Z M239.568,12.174 L239.568,16.29 L237.65,16.29 L237.65,6.182 L241.276,6.182 C242.914,6.182 243.936,7.512 243.936,9.136 C243.936,10.802 242.886,12.174 241.248,12.174 L239.568,12.174 Z M239.568,7.68 L239.568,10.676 L240.534,10.676 C241.5,10.676 241.976,10.13 241.976,9.164 C241.976,8.212 241.5,7.68 240.534,7.68 L239.568,7.68 Z M244.006,16.29 L246.568,6.182 L249.144,6.182 L251.384,16.29 L249.312,16.29 L248.836,13.658 L246.666,13.658 L246.064,16.29 L244.006,16.29 Z M246.904,12.16 L248.598,12.16 L247.828,7.456 L246.904,12.16 Z M253.904,9.094 L252.042,9.094 C252.042,7.33 253.148,6 255.052,6 C256.41,6 258.076,6.644 258.076,8.688 C258.076,9.738 257.446,10.648 256.522,10.886 C257.53,11.138 258.216,11.964 258.216,13.49 C258.216,15.52 257.11,16.528 255.108,16.528 C253.456,16.528 251.888,15.772 251.888,13.602 L253.75,13.602 C253.75,14.302 254.03,14.988 254.996,14.988 C255.92,14.988 256.256,14.358 256.256,13.308 C256.256,12.118 255.654,11.684 254.856,11.684 L254.45,11.684 L254.45,10.242 L254.856,10.242 C255.57,10.242 256.116,9.85 256.116,8.954 C256.116,8.282 255.864,7.54 255.052,7.54 C254.296,7.54 253.904,8.184 253.904,9.094 Z M259.476,9.458 C259.476,6.91 260.848,6 262.766,6 C264.712,6 266.014,6.882 266.014,9.458 L266.014,13.126 C266.014,15.702 264.712,16.528 262.766,16.528 C260.848,16.528 259.476,15.674 259.476,13.126 L259.476,9.458 Z M262.766,7.54 C261.856,7.54 261.436,8.156 261.436,9.234 L261.436,13.364 C261.436,14.414 261.856,14.988 262.766,14.988 C263.592,14.988 264.054,14.428 264.054,13.364 L264.054,9.262 C264.054,8.184 263.592,7.54 262.766,7.54 Z M269.262,7.624 L269.262,10.284 L270.27,10.284 C271.11,10.284 271.46,9.78 271.46,8.912 C271.46,8.058 271.166,7.624 270.298,7.624 L269.262,7.624 Z M269.262,11.726 L269.262,14.848 L270.494,14.848 C271.208,14.848 271.558,14.414 271.558,13.28 C271.558,12.286 271.208,11.726 270.494,11.726 L269.262,11.726 Z M267.344,16.29 L267.344,6.182 L270.886,6.182 C272.664,6.182 273.378,7.358 273.378,8.646 C273.378,9.612 272.86,10.69 272.02,10.858 C273.014,11.264 273.518,11.978 273.518,13.294 C273.518,15.044 272.762,16.29 271.208,16.29 L267.344,16.29 Z M274.092,16.29 L276.654,6.182 L279.23,6.182 L281.47,16.29 L279.398,16.29 L278.922,13.658 L276.752,13.658 L276.15,16.29 L274.092,16.29 Z M276.99,12.16 L278.684,12.16 L277.914,7.456 L276.99,12.16 Z M285.6,7.722 L285.6,16.29 L283.682,16.29 L283.682,7.722 L281.302,7.722 L281.302,6.182 L287.98,6.182 L287.98,7.722 L285.6,7.722 Z M288.932,6.182 L294.336,6.182 L294.336,7.722 L290.85,7.722 L290.85,10.074 L294.028,10.074 L294.028,11.614 L290.85,11.614 L290.85,14.75 L294.336,14.75 L294.336,16.29 L288.932,16.29 L288.932,6.182 Z M296.478,6.182 L302.33,6.182 L302.33,16.29 L300.412,16.29 L300.412,7.722 L298.368,7.722 L298.368,11.6 C298.368,14.974 297.808,16.472 296.198,16.472 C295.75,16.472 295.4,16.444 295.036,16.346 L295.036,14.932 C295.162,14.974 295.428,15.002 295.652,15.002 C296.24,15.002 296.478,14.694 296.478,11.026 L296.478,6.182 Z M305.732,11.614 L305.732,14.848 L306.838,14.848 C307.552,14.848 307.958,14.414 307.958,13.28 C307.958,12.286 307.552,11.614 306.838,11.614 L305.732,11.614 Z M305.732,6.182 L305.732,10.074 L307.342,10.074 C308.91,10.074 309.918,11.628 309.918,13.056 C309.918,15.002 309.036,16.29 307.51,16.29 L303.814,16.29 L303.814,6.182 L305.732,6.182 Z M313.166,6.182 L313.166,10.074 L315.7,10.074 L315.7,6.182 L317.618,6.182 L317.618,16.29 L315.7,16.29 L315.7,11.614 L313.166,11.614 L313.166,16.29 L311.248,16.29 L311.248,6.182 L313.166,6.182 Z M318.388,16.29 L320.95,6.182 L323.526,6.182 L325.766,16.29 L323.694,16.29 L323.218,13.658 L321.048,13.658 L320.446,16.29 L318.388,16.29 Z M321.286,12.16 L322.98,12.16 L322.21,7.456 L321.286,12.16 Z M330.876,12.174 L329.938,12.174 L328.202,16.29 L326.116,16.29 L328.076,11.95 C327.082,11.502 326.494,10.41 326.494,9.136 C326.494,7.512 327.46,6.182 329.098,6.182 L332.794,6.182 L332.794,16.29 L330.876,16.29 L330.876,12.174 Z M330.876,10.676 L330.876,7.68 L329.91,7.68 C328.944,7.68 328.454,8.212 328.454,9.164 C328.454,10.13 328.944,10.676 329.91,10.676 L330.876,10.676 Z M343.658,9.472 L341.74,9.472 L341.74,9.248 C341.74,7.974 341.418,7.54 340.606,7.54 C339.794,7.54 339.444,7.974 339.444,9.248 L339.444,13.238 C339.444,14.554 339.78,14.988 340.592,14.988 C341.362,14.988 341.74,14.54 341.74,13.238 L341.74,12.692 L343.658,12.692 L343.658,13.126 C343.658,14.96 343,16.528 340.606,16.528 C338.086,16.528 337.484,14.946 337.484,13.154 L337.484,9.472 C337.484,7.106 338.548,6 340.634,6 C342.594,6 343.658,7.106 343.658,8.968 L343.658,9.472 Z M346.906,12.174 L346.906,16.29 L344.988,16.29 L344.988,6.182 L348.614,6.182 C350.252,6.182 351.274,7.512 351.274,9.136 C351.274,10.802 350.224,12.174 348.586,12.174 L346.906,12.174 Z M346.906,7.68 L346.906,10.676 L347.872,10.676 C348.838,10.676 349.314,10.13 349.314,9.164 C349.314,8.212 348.838,7.68 347.872,7.68 L346.906,7.68 Z M352.604,6.182 L358.008,6.182 L358.008,7.722 L354.522,7.722 L354.522,10.074 L357.7,10.074 L357.7,11.614 L354.522,11.614 L354.522,14.75 L358.008,14.75 L358.008,16.29 L352.604,16.29 L352.604,6.182 Z M360.458,6.182 L366.198,6.182 L366.198,14.75 L366.814,14.75 L366.814,18.32 L364.966,18.32 L364.966,16.29 L360.78,16.29 L360.78,18.32 L358.932,18.32 L358.932,14.75 L359.534,14.75 C360.206,13.266 360.458,12.118 360.458,9.332 L360.458,6.182 Z M364.28,7.722 L362.348,7.722 L362.348,10.018 C362.348,12.342 362.026,13.49 361.438,14.75 L364.28,14.75 L364.28,7.722 Z M367.304,16.29 L369.866,6.182 L372.442,6.182 L374.682,16.29 L372.61,16.29 L372.134,13.658 L369.964,13.658 L369.362,16.29 L367.304,16.29 Z M370.202,12.16 L371.896,12.16 L371.126,7.456 L370.202,12.16 Z M378.91,7.974 L378.91,6.182 L380.66,6.182 L380.66,8.17 C380.66,8.898 380.044,9.794 379.204,9.794 L379.092,9.794 L379.092,9.136 C379.414,9.136 379.946,9.01 379.946,7.974 L378.91,7.974 Z M387.45,14.75 L387.45,16.29 L381.948,16.29 L381.948,15.772 C381.948,13 384.02,11.712 384.846,10.886 C385.728,10.004 385.882,9.64 385.882,8.982 C385.882,8.072 385.504,7.722 384.874,7.722 C384.244,7.722 383.866,8.086 383.866,9.248 L383.866,9.794 L382.074,9.794 L382.074,9.206 C382.074,7.148 383.516,6.182 384.874,6.182 C386.428,6.182 387.674,7.204 387.674,8.828 C387.674,9.878 387.198,10.942 386.344,11.768 C385.308,12.762 384.132,13.532 383.992,14.75 L387.45,14.75 Z M392.014,6.182 C393.694,6.182 394.772,7.19 394.772,8.814 L394.772,13.84 C394.772,15.464 393.694,16.528 392.014,16.528 C390.46,16.528 389.214,15.436 389.214,13.84 L389.214,8.814 C389.214,7.218 390.46,6.182 392.014,6.182 Z M392.014,7.722 C391.482,7.722 391.006,8.058 391.006,8.646 L391.006,14.008 C391.006,14.61 391.482,14.988 392.014,14.988 C392.518,14.988 392.98,14.554 392.98,13.952 L392.98,8.632 C392.98,8.03 392.518,7.722 392.014,7.722 Z M398.678,6.364 L399.98,6.364 L399.98,16.29 L398.188,16.29 L398.188,9.458 L395.906,9.458 L395.906,8.1 L396.144,8.1 C397.642,8.1 398.454,7.316 398.678,6.364 Z M402.64,6.364 L408.366,6.364 L408.366,7.792 C407.316,9.85 406.21,12.58 405.972,16.29 L403.984,16.29 C404.32,13.224 405.37,9.934 406.532,7.904 L402.64,7.904 L402.64,6.364 Z"/>
    <polygon fill="#0D9FDA" points="206.894 41.621 211.102 50.66 216.468 50.66 209.84 37.823 216.258 28 210.822 28 205 37.823"/>
    <polygon fill="#FFF" points="196.894 41.621 201.102 50.66 206.468 50.66 199.84 37.823 206.258 28 200.822 28 195 37.823"/>
  </g>
</svg>
